%YAML 1.1
%TAG !u! tag:unity3d.com,2011:
--- !u!1045 &1
EditorBuildSettings:
  m_ObjectHideFlags: 0
  serializedVersion: 2
  m_Scenes:
  - enabled: 1
    path: Assets/_Own/Scenes/laser-space.unity
    guid: 85d9a0e095664d14492e7dd030a2b6a4
  m_configObjects: {}
