{  
    "version":2,
    "controller":{  

    },
    "workers":[  
        {  
            "type":"router",
            "realms":[  
                {  
                    "name":"vtplus.vr",
                    "roles":[  
                        {  
                            "name":"anonymous",
                            "permissions":[  
                                {  
                                    "uri":"",
                                    "match":"prefix",
                                    "allow":{  
                                        "call":true,
                                        "register":true,
                                        "publish":true,
                                        "subscribe":true
                                    },
                                    "disclose":{  
                                        "caller":true,
                                        "publisher":true
                                    },
                                    "cache":true
                                }
                            ]
                        }
                    ]
                }
            ],
            "transports":[  
{
	"type": "mqtt",
        "endpoint": {
        "type": "tcp",
        "port": 1883
    },
    "options": {
        "realm": "vtplus.vr",
        "role": "anonymous",
        "payload_mapping": {
            "": {
                "type": "native",
                "serializer": "json"
            }
        }
    }
},
                {   
                    "type":"universal",
                    "endpoint":{  
                        "type":"tcp",
                        "port":8080
                    },
                    "rawsocket":{  
                        "serializers":[  
                            "cbor",
                            "msgpack",
                            "ubjson",
                            "json"
                        ]
                    },
                    "websocket":{  
                        "ws":{  
                            "type":"websocket",
                            "serializers":[  
                                "cbor",
                                "msgpack",
                                "ubjson",
                                "json"
                            ]                            
                        }                        
                    }                 
                }               
            ]
        }
    ]
}